Project1
…
1. Tidying: Rearranging Wide/Long (10 pts)

Tidy the datasets (using the tidyr functions pivot_longer/gather and/or pivot_wider/spread)

If you data sets are already tidy, be sure to use those functions somewhere else in your project (e.g., for rearranging summary statistics)

Document the process (describe in words what was done)

library("readxl")
library(dplyr)
ou <- read_excel("gen1ou.xlsx")
ou <- ou %>% rename(Usage = `Usage %`, RawPer = `%...5`, RealPer = `%...7`)
head(ou)

## # A tibble: 6 x 7
##    Rank Pokemon   Usage   Raw RawPer  Real RealPer
##   <dbl> <chr>     <dbl> <dbl>  <dbl> <dbl>   <dbl>
## 1     1 Tauros    0.962 28121  0.675 21359   0.622
## 2     2 Chansey   0.888 24431  0.586 20748   0.604
## 3     3 Snorlax   0.841 23284  0.559 19206   0.559
## 4     4 Exeggutor 0.577 18928  0.454 16499   0.480
## 5     5 Starmie   0.497 14295  0.343 12613   0.367
## 6     6 Alakazam  0.375 20168  0.484 17235   0.502

glimpse(ou)

## Rows: 155
## Columns: 7
## $ Rank    <dbl> 1, 2, 3, 4, 5, 6, 7, 8, 9, 10, 11, 12, 13, 14, 15, 16, 17, 18…
## $ Pokemon <chr> "Tauros", "Chansey", "Snorlax", "Exeggutor", "Starmie", "Alak…
## $ Usage   <dbl> 0.9616498, 0.8882688, 0.8408913, 0.5768698, 0.4967027, 0.3750…
## $ Raw     <dbl> 28121, 24431, 23284, 18928, 14295, 20168, 8197, 6737, 11489, …
## $ RawPer  <dbl> 0.67504, 0.58647, 0.55893, 0.45437, 0.34315, 0.48413, 0.19677…
## $ Real    <dbl> 21359, 20748, 19206, 16499, 12613, 17235, 7736, 5709, 9253, 9…
## $ RealPer <dbl> 0.62167, 0.60388, 0.55900, 0.48021, 0.36711, 0.50163, 0.22516…

gen1 <- read.csv("FirstGenPokemon.csv", header = TRUE)
head(gen1)

##   Number      Name Types Type1  Type2 Height.m. Weight.kg. Male_Pct Female_Pct
## 1      1 Bulbasaur     2 grass poison       0.7        6.9     87.5       12.5
## 2      2   Ivysaur     2 grass poison       1.0       13.0     87.5       12.5
##   Capt_Rate Exp_Points   Exp_Speed Base_Total HP Attack Defense Special Speed
## 1        45    1059860 Medium Slow        253 45     49      49      65    45
## 2        45    1059860 Medium Slow        325 60     62      63      80    60
##   Normal_Dmg Fire_Dmg Water_Dmg Eletric_Dmg Grass_Dmg Ice_Dmg Fight_Dmg
## 1          1        2       0.5         0.5      0.25       2       0.5
## 2          1        2       0.5         0.5      0.25       2       0.5
##   Poison_Dmg Ground_Dmg Flying_Dmg Psychic_Dmg Bug_Dmg Rock_Dmg Ghost_Dmg
## 1          1          1          2           2       4        1         1
## 2          1          1          2           2       4        1         1
##   Dragon_Dmg Evolutions Legendary
## 1          1          2         0
## 2          1          2         0
##  [ reached 'max' / getOption("max.print") -- omitted 4 rows ]
…
Use mutate at least once to generate a variable that is a function of at least one other variable

Compute summary statistics for each of your variables using summarize alone and with group_by (if you have more than 10 variables, fine to just focus on 10) (20 pts)

Use at least 5 unique functions inside of summarize (e.g., mean, sd)

For at least 2, use summarize after grouping by a categorical variable. Create one by dichotomizing a numeric if necessary

If applicable, at least 1 of these should group by two categorical variables

Summarize the procedure and discuss all (or the most interesting) results in no more than two paragraphs (8 pts)

joined %>% filter(Type1 == "normal")

## # A tibble: 23 x 16
##     Rank Pokemon   Usage Type1 Height.m. Weight.kg. Male_Pct Female_Pct
##    <dbl> <chr>     <dbl> <fct>     <dbl>      <dbl>    <dbl>      <dbl>
##  1     1 Tauros  9.62e-1 norm…       1.4       88.4    100          0  
##  2     2 Chansey 8.88e-1 norm…       1.1       34.6      0        100  
##  3     3 Snorlax 8.41e-1 norm…       2.1      460       87.5       12.5
##  4    13 Persian 9.75e-2 norm…       1         32       50         50  
##  5    22 Dodrio  1.91e-2 norm…       1.8       85.2     50         50  
##  6    24 Kangas… 9.11e-3 norm…       2.2       80        0        100  
##  7    30 Ratica… 4.86e-3 norm…       0.7       18.5     50         50  
##  8    34 Porygon 3.10e-3 norm…       0.8       36.5      0          0  
##  9    42 Clefab… 1.17e-3 norm…       1.3       40       25         75  
## 10    44 Spearow 9.43e-4 norm…       0.3        2       50         50  
## # … with 13 more rows, and 8 more variables: Capt_Rate <int>, Exp_Speed <fct>,
## #   Base_Total <int>, HP <int>, Attack <int>, Defense <int>, Special <int>,
## #   Speed <int>

joined %>% arrange(desc(Speed))

## # A tibble: 145 x 16
##     Rank Pokemon   Usage Type1 Height.m. Weight.kg. Male_Pct Female_Pct
##    <dbl> <chr>     <dbl> <fct>     <dbl>      <dbl>    <dbl>      <dbl>
##  1    43 Electr… 9.65e-4 elec…       1.2       66.6      0          0  
##  2    11 Jolteon 1.78e-1 elec…       0.8       24.5     87.5       12.5
##  3    38 Aeroda… 2.35e-3 rock        1.8       59       87.5       12.5
##  4     6 Alakaz… 3.75e-1 psyc…       1.5       48       75         25  
##  5    56 Dugtrio 5.14e-4 grou…       0.7       33.3     50         50  
##  6     5 Starmie 4.97e-1 water       1.1       80        0          0  
##  7    13 Persian 9.75e-2 norm…       1         32       50         50  
##  8     1 Tauros  9.62e-1 norm…       1.4       88.4    100          0  
##  9    10 Gengar  1.93e-1 ghost       1.5       40.5     50         50  
## 10    41 Scyther 1.89e-3 bug         1.5       56       50         50  
## # … with 135 more rows, and 8 more variables: Capt_Rate <int>, Exp_Speed <fct>,
## #   Base_Total <int>, HP <int>, Attack <int>, Defense <int>, Special <int>,
## #   Speed <int>

joined %>% select(Pokemon, Base_Total, Usage) %>% arrange(desc(Base_Total))

## # A tibble: 145 x 3
##    Pokemon   Base_Total   Usage
##    <chr>          <int>   <dbl>
##  1 Dragonite        500 0.0223 
##  2 Moltres          495 0.0264 
##  3 Zapdos           490 0.133  
##  4 Articuno         485 0.0208 
##  5 Cloyster         480 0.242  
##  6 Gyarados         480 0.00713
##  7 Exeggutor        455 0.577  
##  8 Arcanine         455 0.0111 
##  9 Tauros           450 0.962  
## 10 Lapras           450 0.0899 
## # … with 135 more rows

joined %>% mutate(BMI = Weight.kg./(Height.m.)^2) %>% select(Pokemon, 
    BMI) %>% arrange(desc(BMI))

## # A tibble: 145 x 2
##    Pokemon     BMI
##    <chr>     <dbl>
##  1 Golem     153. 
##  2 Geodude   125. 
##  3 Rhyhorn   115  
##  4 Mankey    112  
##  5 Graveler  105  
##  6 Snorlax   104. 
##  7 Seel       74.4
##  8 Eevee      72.2
##  9 Dugtrio    68.0
## 10 Magnemite  66.7
## # … with 135 more rows
…
joined %>% group_by(Type1, Exp_Speed) %>% summarize(mean(Capt_Rate))

## # A tibble: 32 x 3
## # Groups:   Type1 [14]
##    Type1    Exp_Speed   `mean(Capt_Rate)`
##    <fct>    <fct>                   <dbl>
##  1 bug      Medium Fast             129. 
##  2 bug      Slow                     45  
##  3 dragon   Slow                     45  
##  4 electric Medium Fast             107. 
##  5 electric Slow                      3  
##  6 fighting Medium Fast              88.8
##  7 fighting Medium Slow             105  
##  8 fire     Medium Fast             101. 
##  9 fire     Medium Slow              45  
## 10 fire     Slow                     89.3
## # … with 22 more rows
…
tidycor <- cormat %>% as.data.frame %>% rownames_to_column("var1") %>%
pivot_longer(-1,names_to="var2",values_to="correlation")
tidycor

## # A tibble: 169 x 3
##    var1  var2       correlation
##    <chr> <chr>            <dbl>
##  1 Rank  Rank            1     
##  2 Rank  Usage          -0.445 
##  3 Rank  Height.m.      -0.371 
##  4 Rank  Weight.kg.     -0.500 
##  5 Rank  Male_Pct        0.0436
##  6 Rank  Female_Pct      0.112 
##  7 Rank  Capt_Rate       0.695 
##  8 Rank  Base_Total     -0.812 
##  9 Rank  HP             -0.506 
## 10 Rank  Attack         -0.485 
## # … with 159 more rows
…
